…
Where are these counties?

``` r
# Where are these counties?
CDL2014.ac.select[ind.hicornsoy.cornsoy,] %>%
  group_by(STATE) %>%
  summarise(state_n = n()) %>%
  arrange(desc(state_n)) ->
  CDL.hicornsoy.statecount
CDL.hicornsoy.statecount
```

    ## # A tibble: 22 × 2
    ##     STATE state_n
    ##    <fctr>   <int>
    ## 1      IL      99
    ## 2      IA      76
    ## 3      KY      74
    ## 4      IN      71
    ## 5      MO      68
    ## 6      TN      55
    ## 7      NE      35
    ## 8      MN      22
    ## 9      OH      22
    ## 10     VA      14
    ## # ... with 12 more rows
…
